<?xml version="1.0" encoding="UTF-8"?>
<svg width="20px" height="16px" viewBox="0 0 20 16" version="1.1" xmlns="http://www.w3.org/2000/svg" xmlns:xlink="http://www.w3.org/1999/xlink">
    <defs></defs>
    <g id="Sync" stroke="none" stroke-width="1" fill="none" fill-rule="evenodd" stroke-linecap="round" opacity="0.2" stroke-linejoin="round">
        <g id="mt-9A-create-type" transform="translate(-1186.000000, -375.000000)" stroke="#000000">
            <g id="type-tools" transform="translate(730.000000, 353.000000)">
                <g id="align" transform="translate(394.000000, 22.000000)">
                    <g id="align-left" transform="translate(63.000000, 0.000000)">
                        <path d="M0,0.5 L17.8571429,0.5" id="Line-Copy"></path>
                        <path d="M0,5.5 L13.5,5.5" id="Line-Copy-2"></path>
                        <path d="M0,15.5 L13.5,15.5" id="Line-Copy-11"></path>
                        <path d="M0,10.5 L17.8571429,10.5" id="Line-Copy-3"></path>
                    </g>
                </g>
            </g>
        </g>
    </g>
</svg>