<?xml version="1.0" encoding="UTF-8"?>
<svg width="27px" height="27px" viewBox="0 0 27 27" version="1.1" xmlns="http://www.w3.org/2000/svg" xmlns:xlink="http://www.w3.org/1999/xlink">
    <defs></defs>
    <g id="Sync" stroke="none" stroke-width="1" fill="none" fill-rule="evenodd">
        <g id="mt-6A-create-image" transform="translate(-969.000000, -299.000000)" stroke="#000000">
            <g id="toolbar" transform="translate(730.000000, 283.000000)">
                <g id="effects-icon" transform="translate(240.000000, 17.000000)">
                    <g id="Group-10" transform="translate(0.595238, 0.316402)">
                        <path d="M0,2.52777778 L23.8095238,2.52777778" id="Line-Copy" stroke-width="2.1375" stroke-linecap="round" stroke-linejoin="round"></path>
                        <path d="M0,11.9166667 L23.8095238,11.9166667" id="Line-Copy-2" stroke-width="2.1375" stroke-linecap="round" stroke-linejoin="round"></path>
                        <path d="M0,21.3055556 L23.8095238,21.3055556" id="Line-Copy-3" stroke-width="2.1375" stroke-linecap="round" stroke-linejoin="round"></path>
                        <ellipse id="Oval-2" stroke-width="1.06875" fill="#FFFFFF" cx="5.25210084" cy="3.0952381" rx="3.1512605" ry="3.0952381"></ellipse>
                        <ellipse id="Oval-2-Copy" stroke-width="1.06875" fill="#FFFFFF" cx="17.8571429" cy="12.037037" rx="3.1512605" ry="3.0952381"></ellipse>
                        <ellipse id="Oval-2-Copy-2" stroke-width="1.06875" fill="#FFFFFF" cx="8.7535014" cy="21.5566138" rx="3.1512605" ry="3.0952381"></ellipse>
                    </g>
                </g>
            </g>
        </g>
    </g>
</svg>