<?xml version="1.0" encoding="UTF-8"?>
<svg width="29px" height="29px" viewBox="0 0 29 29" version="1.1" xmlns="http://www.w3.org/2000/svg" xmlns:xlink="http://www.w3.org/1999/xlink">
    <defs></defs>
    <g id="Sync" stroke="none" stroke-width="1" fill="none" fill-rule="evenodd" stroke-linecap="round" stroke-linejoin="round">
        <g id="mt-8A-create-effects" transform="translate(-776.000000, -299.000000)" stroke="#000000" stroke-width="2.1375">
            <g id="toolbar" transform="translate(730.000000, 283.000000)">
                <g id="image-icon" transform="translate(48.000000, 18.000000)">
                    <path d="M12.8080286,0 L12.8080286,25" id="Line"></path>
                    <path d="M0,11.7647059 L25,11.7647059" id="Line-Copy"></path>
                </g>
            </g>
        </g>
    </g>
</svg>