<?xml version="1.0" encoding="UTF-8"?>
<svg width="25px" height="25px" viewBox="0 0 25 25" version="1.1" xmlns="http://www.w3.org/2000/svg" xmlns:xlink="http://www.w3.org/1999/xlink">
    <defs></defs>
    <g id="Sync" stroke="none" stroke-width="1" fill="none" fill-rule="evenodd">
        <g id="mt-6A-create-image" transform="translate(-886.000000, -665.000000)" fill="#DE505D">
            <g id="image-upload" transform="translate(730.000000, 353.000000)">
                <g id="add-image" transform="translate(156.000000, 311.000000)">
                    <path d="M12.5000248,1 C9.10520382,1 8.6795239,1.01438946 7.3463156,1.07522214 C6.01578673,1.13590597 5.10716675,1.34723256 4.31202502,1.656209 C3.49003952,1.97565502 2.7929446,2.4030716 2.09803291,3.09798329 C1.40312122,3.7929446 0.975704637,4.49003952 0.656258621,5.31202502 C0.347232559,6.10711713 0.135955589,7.01578673 0.0752221435,8.34626598 C0.0143894602,9.6795239 0,10.1052038 0,13.5000248 C0,16.8947962 0.0143894602,17.3204761 0.0752221435,18.653734 C0.135955589,19.9842133 0.347232559,20.8928829 0.656258621,21.687975 C0.975704637,22.5099605 1.40312122,23.2070554 2.09803291,23.9020167 C2.7929446,24.5969284 3.49003952,25.024345 4.31202502,25.343791 C5.10716675,25.6527674 6.01578673,25.864094 7.3463156,25.9247779 C8.6795239,25.9856602 9.10520382,26 12.5000248,26 C15.8948458,26 16.3204761,25.9856602 17.653734,25.9247779 C18.9842629,25.864094 19.8928829,25.6527674 20.6880246,25.343791 C21.5100101,25.024345 22.207105,24.5969284 22.9020167,23.9020167 C23.5969284,23.2070554 24.024345,22.5099605 24.343791,21.687975 C24.6528171,20.8928829 24.864094,19.9842133 24.9248275,18.653734 C24.9856602,17.3204761 25,16.8947962 25,13.5000248 C25,10.1052038 24.9856602,9.6795239 24.9248275,8.34626598 C24.864094,7.01578673 24.6528171,6.10711713 24.343791,5.31202502 C24.024345,4.49003952 23.5969284,3.7929446 22.9020167,3.09798329 C22.207105,2.4030716 21.5100101,1.97565502 20.6880246,1.656209 C19.8928829,1.34723256 18.9842629,1.13590597 17.653734,1.07522214 C16.3204761,1.01438946 15.8948458,1 12.5000248,1 M12.5000248,3.25224823 C15.8376849,3.25224823 16.2329981,3.26500027 17.5510727,3.32513829 C18.7698103,3.38071138 19.4316759,3.58434705 19.8721918,3.755532 C20.45561,3.98229005 20.8720608,4.25315923 21.3094508,4.69059882 C21.7468408,5.12798879 22.0177596,5.54439 22.244468,6.1278578 C22.415653,6.56832413 22.6192886,7.23018968 22.6749113,8.44892734 C22.7350494,9.76700189 22.7477518,10.1623647 22.7477518,13.5000248 C22.7477518,16.8376353 22.7350494,17.2329981 22.6749113,18.5510727 C22.6192886,19.7698103 22.415653,20.4316759 22.244468,20.8721422 C22.0177596,21.45561 21.7468408,21.8720112 21.3094508,22.3094012 C20.8720608,22.7468408 20.45561,23.01771 19.8721918,23.244468 C19.4316759,23.415653 18.7698103,23.6192886 17.5510727,23.6748617 C16.2331966,23.7349997 15.8378834,23.7477518 12.5000248,23.7477518 C9.16216624,23.7477518 8.76685303,23.7349997 7.44897696,23.6748617 C6.2302393,23.6192886 5.56832413,23.415653 5.1278578,23.244468 C4.54443961,23.01771 4.12798879,22.7468408 3.69059882,22.3094012 C3.25320885,21.8720112 2.98229005,21.45561 2.755532,20.8721422 C2.58439666,20.4316759 2.38076099,19.7698103 2.32513829,18.5510727 C2.26500027,17.2329981 2.25229785,16.8376353 2.25229785,13.5000248 C2.25229785,10.1623647 2.26500027,9.76700189 2.32513829,8.44892734 C2.38076099,7.23018968 2.58439666,6.56832413 2.755532,6.1278578 C2.98229005,5.54439 3.25320885,5.12798879 3.69059882,4.69059882 C4.12798879,4.25315923 4.54443961,3.98229005 5.1278578,3.755532 C5.56832413,3.58434705 6.2302393,3.38071138 7.44892734,3.32513829 C8.76705151,3.26500027 9.16236471,3.25224823 12.5000248,3.25224823 Z M12.5000248,17.6666667 C10.1988524,17.6666667 8.33333333,15.8011972 8.33333333,13.5000248 C8.33333333,11.1988028 10.1988524,9.33333333 12.5000248,9.33333333 C14.8011972,9.33333333 16.6666667,11.1988028 16.6666667,13.5000248 C16.6666667,15.8011972 14.8011972,17.6666667 12.5000248,17.6666667 Z M12.5000248,7.0810851 C8.95495801,7.0810851 6.0810851,9.95490839 6.0810851,13.5000248 C6.0810851,17.0450916 8.95495801,19.9189149 12.5000248,19.9189149 C16.0450916,19.9189149 18.9189645,17.0450916 18.9189645,13.5000248 C18.9189645,9.95490839 16.0450916,7.0810851 12.5000248,7.0810851 Z M20.6725584,6.82746839 C20.6725584,5.99903243 20.0009676,5.32749121 19.1725812,5.32749121 C18.3441453,5.32749121 17.6725544,5.99903243 17.6725544,6.82746839 C17.6725544,7.65590434 18.3441453,8.32744556 19.1725812,8.32744556 C20.0009676,8.32744556 20.6725584,7.65590434 20.6725584,6.82746839 Z" id="instagram-icon"></path>
                </g>
            </g>
        </g>
    </g>
</svg>