<?xml version="1.0" encoding="UTF-8"?>
<svg width="42px" height="42px" viewBox="0 0 42 42" version="1.1" xmlns="http://www.w3.org/2000/svg" xmlns:xlink="http://www.w3.org/1999/xlink">
    <defs>
        <circle id="path-1" cx="21" cy="21" r="21"></circle>
        <mask id="mask-2" maskContentUnits="userSpaceOnUse" maskUnits="objectBoundingBox" x="0" y="0" width="42" height="42" fill="white">
            <use xlink:href="#path-1"></use>
        </mask>
    </defs>
    <g id="Sync" stroke="none" stroke-width="1" fill="none" fill-rule="evenodd">
        <g id="mt-9A-create-type" transform="translate(-1240.000000, -760.000000)">
            <g id="type-tools" transform="translate(730.000000, 353.000000)">
                <g id="color" transform="translate(28.000000, 378.000000)">
                    <g id="more" transform="translate(482.000000, 29.000000)">
                        <use id="Oval-3-Copy-10" stroke="#CFCECE" mask="url(#mask-2)" stroke-width="2" fill="#FFFFFF" xlink:href="#path-1"></use>
                        <text id="MORE" font-family="BoxedMedium, Boxed" font-size="8" font-weight="400" fill="#000000">
                            <tspan x="10.592" y="33">MORE</tspan>
                        </text>
                        <g id="more-icon" transform="translate(15.000000, 7.000000)" stroke="#000000" stroke-linecap="round" stroke-linejoin="round">
                            <path d="M11.7123524,13.9513093 C10.5938595,15.8190821 8.50027026,17 6.26328445,17 C4.02601185,17 1.93242256,15.8462707 0.814216451,13.9513093 C-0.246917843,12.1939387 -0.275883942,10.1064603 0.756857841,8.37627825 L6.26328445,0 L11.7694243,8.40374146 C12.802166,10.1064603 12.7732,12.1939387 11.7123524,13.9513093 Z" id="Stroke-1"></path>
                            <path d="M10.7368417,10.7368421 C10.7368417,10.7368421 10.75003,15.3121977 6.26315789,15.2087998" id="Stroke-3"></path>
                        </g>
                    </g>
                </g>
            </g>
        </g>
    </g>
</svg>