<?xml version="1.0" encoding="UTF-8"?>
<svg width="32px" height="32px" viewBox="0 0 42 42" version="1.1" xmlns="http://www.w3.org/2000/svg" xmlns:xlink="http://www.w3.org/1999/xlink">
    <defs></defs>
    <g id="Sync" stroke="none" stroke-width="1" fill="none" fill-rule="evenodd" stroke-linecap="round" opacity="0.9" stroke-linejoin="round">
        <g id="mt-7A-create-image-confirm" transform="translate(-863.000000, -667.000000)" stroke="#000000" stroke-width="2">
            <g id="image-upload-confirm" transform="translate(730.000000, 353.000000)">
                <g id="upload-icon-dark" transform="translate(134.000000, 315.000000)">
                    <path d="M20.3076923,0 L20.3076923,40" id="Line"></path>
                    <path d="M0,20.3076923 L40,20.3076923" id="Line-Copy"></path>
                </g>
            </g>
        </g>
    </g>
</svg>
